…
``` r
co2 <- 
readr::read_table("ftp://aftp.cmdl.noaa.gov/products/trends/co2/co2_mm_mlo.txt", 
                  comment="#",
                  col_names = c("year", "month", "decimal_date",
                                "average", "interpolated", "trend", 
                                "days"),
                  na = c("-1", "-99.99"))
co2
```

    ## # A tibble: 729 x 7
    ##     year month decimal_date average interpolated trend  days
    ##    <int> <int>        <dbl>   <dbl>        <dbl> <dbl> <int>
    ##  1  1958     3        1958.    316.         316.  315.    NA
    ##  2  1958     4        1958.    317.         317.  315.    NA
    ##  3  1958     5        1958.    318.         318.  315.    NA
    ##  4  1958     6        1958.     NA          317.  315.    NA
    ##  5  1958     7        1959.    316.         316.  315.    NA
    ##  6  1958     8        1959.    315.         315.  316.    NA
    ##  7  1958     9        1959.    313.         313.  316.    NA
    ##  8  1958    10        1959.     NA          313.  316.    NA
    ##  9  1958    11        1959.    313.         313.  315.    NA
    ## 10  1958    12        1959.    315.         315.  316.    NA
    ## # ... with 719 more rows
…
Construct the necessary R code to import and prepare for manipulation
the following data set:
<http://climate.nasa.gov/system/internal_resources/details/original/647_Global_Temperature_Data_File.txt>

``` r
temperature <- 'http://climate.nasa.gov/system/internal_resources/details/original/647_Global_Temperature_Data_File.txt'

temp_table <- read_table2(temperature, 
                          col_names = c("Year", "Annual_Mean","Lowess_Smoothing" ), 
                          col_types = 'idd')
temp_table 
```

    ## # A tibble: 138 x 3
    ##     Year Annual_Mean Lowess_Smoothing
    ##    <int>       <dbl>            <dbl>
    ##  1  1880       -0.19            -0.11
    ##  2  1881       -0.1             -0.14
    ##  3  1882       -0.1             -0.17
    ##  4  1883       -0.19            -0.21
    ##  5  1884       -0.28            -0.24
    ##  6  1885       -0.31            -0.26
    ##  7  1886       -0.32            -0.27
    ##  8  1887       -0.35            -0.27
    ##  9  1888       -0.18            -0.27
    ## 10  1889       -0.11            -0.26
    ## # ... with 128 more rows
…
## Rolling averages as a Measurement Metric

A 5 year average is the average of the data of the surrounding five
years, whereas an annual average is the average of data over one year.

Constructing 5 year, 10 year, and 20 year averages from the annual data:

``` r
temp_table
```

    ## # A tibble: 138 x 3
    ##     Year Annual_Mean Lowess_Smoothing
    ##    <int>       <dbl>            <dbl>
    ##  1  1880       -0.19            -0.11
    ##  2  1881       -0.1             -0.14
    ##  3  1882       -0.1             -0.17
    ##  4  1883       -0.19            -0.21
    ##  5  1884       -0.28            -0.24
    ##  6  1885       -0.31            -0.26
    ##  7  1886       -0.32            -0.27
    ##  8  1887       -0.35            -0.27
    ##  9  1888       -0.18            -0.27
    ## 10  1889       -0.11            -0.26
    ## # ... with 128 more rows

``` r
temp_table_average <- temp_table %>%
  mutate(five_yr_avg = roll_mean(Annual_Mean, n = 5, align = "right", fill = NA)) %>%
  mutate(ten_yr_avg = roll_mean(Annual_Mean, n = 10, align = "right", fill = NA)) %>%
  mutate(twenty_yr_avg = roll_mean(Annual_Mean, n = 20, align = "right", fill = NA)) 
  

temp_table_average
```

    ## # A tibble: 138 x 6
    ##     Year Annual_Mean Lowess_Smoothing five_yr_avg ten_yr_avg twenty_yr_avg
    ##    <int>       <dbl>            <dbl>       <dbl>      <dbl>         <dbl>
    ##  1  1880       -0.19            -0.11      NA         NA                NA
    ##  2  1881       -0.1             -0.14      NA         NA                NA
    ##  3  1882       -0.1             -0.17      NA         NA                NA
    ##  4  1883       -0.19            -0.21      NA         NA                NA
    ##  5  1884       -0.28            -0.24      -0.172     NA                NA
    ##  6  1885       -0.31            -0.26      -0.196     NA                NA
    ##  7  1886       -0.32            -0.27      -0.24      NA                NA
    ##  8  1887       -0.35            -0.27      -0.29      NA                NA
    ##  9  1888       -0.18            -0.27      -0.288     NA                NA
    ## 10  1889       -0.11            -0.26      -0.254     -0.213            NA
    ## # ... with 128 more rows
…
    ## Parsed with column specification:
    ## cols(
    ##   time_decimal = col_double(),
    ##   greenland_mass = col_double(),
    ##   antartica_mass = col_double()
    ## )

``` r
melting_ice
```

    ## # A tibble: 140 x 3
    ##    time_decimal greenland_mass antartica_mass
    ##           <dbl>          <dbl>          <dbl>
    ##  1        2002.          1491.           967.
    ##  2        2002.          1486.           979.
    ##  3        2003.          1287.           512.
    ##  4        2003.          1258.           859.
    ##  5        2003.          1257.           694.
    ##  6        2003.          1288.           592.
    ##  7        2003.          1337.           658.
    ##  8        2003.          1354.           477.
    ##  9        2003.          1363.           546.
    ## 10        2003.          1427.           494.
    ## # ... with 130 more rows
…
``` r
sea_levels
```

    ## # A tibble: 847 x 12
    ##    altimeter_type merged_file_cyc~ year_and_fracti~ number_of_obser~
    ##             <int>            <int>            <dbl>            <int>
    ##  1              0               11            1993.           463892
    ##  2              0               12            1993.           458154
    ##  3              0               13            1993.           469524
    ##  4              0               14            1993.           419112
    ##  5              0               15            1993.           456793
    ##  6              0               16            1993.           414055
    ##  7              0               17            1993.           465235
    ##  8              0               18            1993.           463257
    ##  9              0               19            1993.           458542
    ## 10            999               20            1993.           464921
    ## # ... with 837 more rows, and 8 more variables:
    ## #   number_of_weighted_observations <dbl>, GMSL <dbl>, sd_of_GMSL <dbl>,
    ## #   smoothed_GMSL <dbl>, GMSL_GIA_applied <dbl>,
    ## #   sd_of_GMSL_GIA_applied <dbl>, smoothed_GMSL_GIA_applied <dbl>,
    ## #   smoothed_GMSL_GIA_applied_removed <dbl>
…
    ## Parsed with column specification:
    ## cols(
    ##   year = col_integer(),
    ##   month = col_character(),
    ##   day = col_character(),
    ##   extent = col_double(),
    ##   missing = col_double(),
    ##   data_source = col_character()
    ## )

``` r
arctic_sea
```

    ## # A tibble: 13,001 x 6
    ##     year month day   extent missing data_source                           
    ##    <int> <chr> <chr>  <dbl>   <dbl> <chr>                                 
    ##  1  1978 10    26      10.2       0 ['ftp://sidads.colorado.edu/pub/DATAS~
    ##  2  1978 10    28      10.4       0 ['ftp://sidads.colorado.edu/pub/DATAS~
    ##  3  1978 10    30      10.6       0 ['ftp://sidads.colorado.edu/pub/DATAS~
    ##  4  1978 11    01      10.7       0 ['ftp://sidads.colorado.edu/pub/DATAS~
    ##  5  1978 11    03      10.8       0 ['ftp://sidads.colorado.edu/pub/DATAS~
    ##  6  1978 11    05      11.0       0 ['ftp://sidads.colorado.edu/pub/DATAS~
    ##  7  1978 11    07      11.1       0 ['ftp://sidads.colorado.edu/pub/DATAS~
    ##  8  1978 11    09      11.2       0 ['ftp://sidads.colorado.edu/pub/DATAS~
    ##  9  1978 11    11      11.3       0 ['ftp://sidads.colorado.edu/pub/DATAS~
    ## 10  1978 11    13      11.5       0 ['ftp://sidads.colorado.edu/pub/DATAS~
    ## # ... with 12,991 more rows
…
    ## Parsed with column specification:
    ## cols(
    ##   depth = col_double(),
    ##   age_ice = col_integer(),
    ##   mean_age_air = col_integer(),
    ##   co2_concentration = col_double()
    ## )

``` r
ice_core
```

    ## # A tibble: 363 x 4
    ##    depth age_ice mean_age_air co2_concentration
    ##    <dbl>   <int>        <int>             <dbl>
    ##  1  149.    5679         2342              285.
    ##  2  173.    6828         3634              273.
    ##  3  177.    7043         3833              268.
    ##  4  229.    9523         6220              262.
    ##  5  250.   10579         7327              255.
    ##  6  266    11334         8113              260.
    ##  7  303.   13449        10123              262.
    ##  8  321.   14538        11013              264.
    ##  9  332.   15208        11326              245.
    ## 10  342.   15922        11719              238.
    ## # ... with 353 more rows

  - Reverse the ordering to create a chronological record.

<!-- end list -->

``` r
arrange(ice_core, desc(age_ice))
```

    ## # A tibble: 363 x 4
    ##    depth age_ice mean_age_air co2_concentration
    ##    <dbl>   <int>        <int>             <dbl>
    ##  1 3304.  419328       417160              278.
    ##  2 3301.  417638       415434              287.
    ##  3 3299.  416332       414085              286.
    ##  4 3293.  413010       410831              276.
    ##  5 3289.  411202       409022              281.
    ##  6 3289.  411202       409022              284.
    ##  7 3284.  408236       405844              280.
    ##  8 3274.  403173       400390              278 
    ##  9 3271.  401423       398554              277.
    ## 10 3268.  399733       396713              275.
    ## # ... with 353 more rows
…
