…
# Calculating Extinction Rates

First, we download a list of extinct species names and then build a
function to extract the date they went extinct from the IUCN Rest
API.

``` r
extinct = read_csv("https://espm-157.github.io/extinction-module/extinct.csv")
extinct
```

    # A tibble: 834 x 23
       `Species ID` Kingdom Phylum Class Order Family Genus Species Authority
              <int> <chr>   <chr>  <chr> <chr> <chr>  <chr> <chr>   <chr>    
     1        44072 PLANTAE TRACH~ MAGN~ ROSA~ ROSAC~ Acae~ exigua  A.Gray   
     2       195373 PLANTAE TRACH~ MAGN~ EUPH~ EUPHO~ Acal~ dikulu~ P.A. Duv~
     3        37854 PLANTAE TRACH~ MAGN~ EUPH~ EUPHO~ Acal~ rubrin~ Cronk    
     4       199821 PLANTAE TRACH~ MAGN~ EUPH~ EUPHO~ Acal~ wilderi Merr.    
     5           82 ANIMAL~ ARTHR~ INSE~ EPHE~ ACANT~ Acan~ pecato~ (Burks, ~
     6          167 ANIMAL~ MOLLU~ GAST~ STYL~ ACHAT~ Acha~ abbrev~ Reeve, 1~
     7          170 ANIMAL~ MOLLU~ GAST~ STYL~ ACHAT~ Acha~ buddii  Newcomb,~
     8          173 ANIMAL~ MOLLU~ GAST~ STYL~ ACHAT~ Acha~ caesia  Gulick, ~
     9          174 ANIMAL~ MOLLU~ GAST~ STYL~ ACHAT~ Acha~ casta   Newcomb,~
    10          179 ANIMAL~ MOLLU~ GAST~ STYL~ ACHAT~ Acha~ decora  "(F\xe9r~
    # ... with 824 more rows, and 14 more variables: `Infraspecific
    #   rank` <chr>, `Infraspecific name` <chr>, `Infraspecific
    #   authority` <chr>, `Stock/subpopulation` <chr>, Synonyms <chr>, `Common
    #   names (Eng)` <chr>, `Common names (Fre)` <chr>, `Common names
    #   (Spa)` <chr>, `Red List status` <chr>, `Red List criteria` <chr>, `Red
    #   List criteria version` <dbl>, `Year assessed` <int>, `Population
    #   trend` <chr>, Petitioned <chr>
…
