…
``` r
cod_tsn <- ram$taxonomy %>%
  filter(genus == 'Gadus', species == "morhua") %>%
  select(tsn) %>%
  left_join(ram$stock, by = 'tsn') %>%
  left_join(ram$area, by = 'areaid') %>%
  left_join(ram$timeseries, by = 'stockid') %>%
  left_join(ram$tsmetrics, by = c('tsid' = 'tsunique')) %>%
  filter(tscategory == 'CATCH or LANDINGS') %>%
  filter(country == 'Canada')
cod_tsn
```

    ## # A tibble: 894 x 24
    ##       tsn stockid scientificname commonname areaid stocklong.x region
    ##     <dbl> <chr>   <chr>          <chr>      <chr>  <chr>       <chr> 
    ##  1 164712 COD2J3~ Gadus morhua   Atlantic ~ Canad~ Atlantic c~ Canad~
    ##  2 164712 COD2J3~ Gadus morhua   Atlantic ~ Canad~ Atlantic c~ Canad~
    ##  3 164712 COD2J3~ Gadus morhua   Atlantic ~ Canad~ Atlantic c~ Canad~
    ##  4 164712 COD2J3~ Gadus morhua   Atlantic ~ Canad~ Atlantic c~ Canad~
    ##  5 164712 COD2J3~ Gadus morhua   Atlantic ~ Canad~ Atlantic c~ Canad~
    ##  6 164712 COD2J3~ Gadus morhua   Atlantic ~ Canad~ Atlantic c~ Canad~
    ##  7 164712 COD2J3~ Gadus morhua   Atlantic ~ Canad~ Atlantic c~ Canad~
    ##  8 164712 COD2J3~ Gadus morhua   Atlantic ~ Canad~ Atlantic c~ Canad~
    ##  9 164712 COD2J3~ Gadus morhua   Atlantic ~ Canad~ Atlantic c~ Canad~
    ## 10 164712 COD2J3~ Gadus morhua   Atlantic ~ Canad~ Atlantic c~ Canad~
    ## # ... with 884 more rows, and 17 more variables: inmyersdb <dbl>,
    ## #   myersstockid <chr>, country <chr>, areatype <chr>, areacode <chr>,
    ## #   areaname <chr>, alternateareaname <chr>, assessid <chr>,
    ## #   stocklong.y <chr>, tsid <chr>, tsyear <dbl>, tsvalue <dbl>,
    ## #   tscategory <chr>, tsshort <chr>, tslong <chr>, tsunitsshort <chr>,
    ## #   tsunitslong <chr>
…
``` r
#Add columns collapse and cumulative
collapse_analysis <- fish_3 %>% 
  filter(year >= 1950, year <= 2006) %>%
  right_join(stock_id_grouping) %>%
  group_by(stockid) %>%
  mutate(collapse = (TC < 0.1 * cummax(TC))) %>%
  mutate(cumulative = cumsum(collapse))  

collapse_analysis
```

    ## # A tibble: 3,249 x 5
    ## # Groups:   stockid [57]
    ##    stockid       year    TC collapse cumulative
    ##    <chr>        <dbl> <dbl> <lgl>         <int>
    ##  1 ACADREDGOMGB  1950 34307 FALSE             0
    ##  2 ACADREDGOMGB  1951 30077 FALSE             0
    ##  3 ACADREDGOMGB  1952 21377 FALSE             0
    ##  4 ACADREDGOMGB  1953 16791 FALSE             0
    ##  5 ACADREDGOMGB  1954 12988 FALSE             0
    ##  6 ACADREDGOMGB  1955 13914 FALSE             0
    ##  7 ACADREDGOMGB  1956 14388 FALSE             0
    ##  8 ACADREDGOMGB  1957 18490 FALSE             0
    ##  9 ACADREDGOMGB  1958 16047 FALSE             0
    ## 10 ACADREDGOMGB  1959 15521 FALSE             0
    ## # ... with 3,239 more rows
…
``` r
percent_collapse_analysis <- collapse_analysis %>% 
  ungroup(stockid) %>%
  group_by(year) %>%
  summarise(percent_collapse = 100*sum(collapse)/length(stock_id_full_range), 
            cumulative = 100*sum(cumulative != 0)/57)

percent_collapse_analysis
```

    ## # A tibble: 57 x 3
    ##     year percent_collapse cumulative
    ##    <dbl>            <dbl>      <dbl>
    ##  1  1950             0          0   
    ##  2  1951             0          0   
    ##  3  1952             0          0   
    ##  4  1953             1.75       1.75
    ##  5  1954             1.75       3.51
    ##  6  1955             0          3.51
    ##  7  1956             1.75       5.26
    ##  8  1957             0          5.26
    ##  9  1958             0          5.26
    ## 10  1959             0          5.26
    ## # ... with 47 more rows
…
